project_benches/proj_3/sim/run.log
QuestaSim qrun 2023.4 Utility 2023.10 Oct  9 2023
Start time: 13:05:26 on Apr 03,2024
qrun -64 -gui -visualizer -onfinish stop -classdebug -uvmcontrol=all -msgmode both -permit_unmatched_virtual_intf -l run.log -f proj2_filelist.f -sv_seed 123456 -msglimit error -msglimitcount 20 -do "set IterationLimit 140000; set NoQuitOnFinish 1; coverage attribute -name TESTNAME -value test_top; coverage save -onexit test_top.ucdb; do wave.do" -debug,livesim -qwavedb=+signal+memory=1024+report+parameter+class+assertion+uvm_schematic+msg+classmemory=1024+statictaskfunc -top top -covermultiuserenv -designfile design.bin 
Creating library 'qrun.out/work'.
QuestaSim-64 vlog 2023.4 Compiler 2023.10 Oct  9 2023
Start time: 13:05:27 on Apr 03,2024
vlog -msglimit error -msglimitcount 20 -covermultiuserenv ../../../verification_ip/ncsu_pkg/ncsu_pkg.sv ../../../verification_ip/ncsu_pkg/ncsu_macros.svh ../../../verification_ip/interface_packages/i2c_pkg/src/i2c_typedefs.svh ../../../verification_ip/interface_packages/i2c_pkg/src/i2c_if.sv ../../../verification_ip/interface_packages/i2c_pkg/i2c_pkg.sv ../../../verification_ip/interface_packages/wb_pkg/src/wb_if.sv ../../../verification_ip/interface_packages/wb_pkg/wb_pkg.sv ../../../verification_ip/environment_packages/i2cmb_env_pkg/i2cmb_env_pkg.sv ../testbench/top.sv -work qrun.out/work -statslog qrun.out/stats_log -writesessionid "+qrun.out/top_dus" -csession=incr -csessionid=0 
-- Compiling package ncsu_pkg
-- Compiling package i2c_typedefs
-- Compiling package i2c_if_sv_unit
-- Importing package i2c_typedefs
-- Compiling interface i2c_if
-- Compiling package i2c_pkg
-- Importing package ncsu_pkg
-- Compiling interface wb_if
-- Compiling package wb_pkg
-- Compiling package i2cmb_env_pkg
-- Importing package i2c_pkg
-- Importing package wb_pkg
-- Compiling package top_sv_unit
-- Importing package i2cmb_env_pkg
-- Compiling module top

Top level modules:
	top
End time: 13:05:29 on Apr 03,2024, Elapsed time: 0:00:02
Errors: 0, Warnings: 0
QuestaSim-64 vcom 2023.4 Compiler 2023.10 Oct  9 2023
Start time: 13:05:29 on Apr 03,2024
vcom -msglimit error -msglimitcount 20 -covermultiuserenv ../rtl/iicmb_int_pkg.vhd ../rtl/iicmb_pkg.vhd ../rtl/mbyte.vhd ../rtl/mbit.vhd ../rtl/bus_state.vhd ../rtl/filter.vhd ../rtl/conditioner.vhd ../rtl/conditioner_mux.vhd ../rtl/iicmb_m.vhd ../rtl/regblock.vhd ../rtl/wishbone.vhd ../rtl/iicmb_m_wb.vhd -work qrun.out/work -autoorder -statslog qrun.out/stats_log -writesessionid "+qrun.out/top_dus" -csession=incr -csessionid=1 
-- Loading package STANDARD
-- Scanning package iicmb_int_pkg
-- Scanning package body iicmb_int_pkg
-- Loading package iicmb_int_pkg
-- Scanning package iicmb_pkg
-- Scanning package body iicmb_pkg
-- Loading package iicmb_pkg
-- Scanning entity mbyte
-- Scanning architecture rtl of mbyte
-- Scanning entity mbit
-- Scanning architecture rtl of mbit
-- Scanning entity bus_state
-- Scanning architecture rtl of bus_state
-- Scanning entity filter
-- Scanning architecture rtl of filter
-- Scanning entity conditioner
-- Scanning architecture str of conditioner
-- Scanning entity conditioner_mux
-- Scanning architecture str of conditioner_mux
-- Scanning entity iicmb_m
-- Scanning architecture str of iicmb_m
-- Scanning entity regblock
-- Scanning architecture rtl of regblock
-- Scanning entity wishbone
-- Scanning architecture rtl of wishbone
-- Scanning entity iicmb_m_wb
-- Scanning architecture str of iicmb_m_wb
End time: 13:05:30 on Apr 03,2024, Elapsed time: 0:00:01
Errors: 0, Warnings: 0
QuestaSim-64 vcom 2023.4 Compiler 2023.10 Oct  9 2023
Start time: 13:05:30 on Apr 03,2024
vcom -refresh_marked -work qrun.out/work -csession=incr -statslog qrun.out/stats_log 
-- Loading package STANDARD
-- Loading package TEXTIO
-- Loading package std_logic_1164
-- Compiling entity bus_state
-- Compiling architecture rtl of bus_state
-- Compiling entity conditioner
-- Compiling architecture str of conditioner
-- Compiling entity conditioner_mux
-- Compiling architecture str of conditioner_mux
-- Compiling entity filter
-- Compiling architecture rtl of filter
-- Compiling package iicmb_int_pkg
-- Compiling package body iicmb_int_pkg
-- Loading package iicmb_int_pkg
-- Loading package NUMERIC_STD
-- Loading package iicmb_pkg
-- Loading package iicmb_int_pkg
-- Compiling entity iicmb_m
-- Compiling architecture str of iicmb_m
-- Compiling entity iicmb_m_wb
-- Compiling architecture str of iicmb_m_wb
-- Compiling package iicmb_pkg
-- Compiling package body iicmb_pkg
-- Loading package iicmb_pkg
-- Compiling entity mbit
-- Compiling architecture rtl of mbit
-- Loading package iicmb_pkg
-- Compiling entity mbyte
-- Compiling architecture rtl of mbyte
-- Compiling entity regblock
-- Compiling architecture rtl of regblock
-- Compiling entity wishbone
-- Compiling architecture rtl of wishbone
End time: 13:05:31 on Apr 03,2024, Elapsed time: 0:00:01
Errors: 0, Warnings: 0
QuestaSim-64 vopt 2023.4 Compiler 2023.10 Oct  9 2023
Start time: 13:05:32 on Apr 03,2024
vopt -msglimit error -msglimitcount 20 -debug,livesim -designfile design.bin top -work qrun.out/work -statslog qrun.out/stats_log -o qrun_opt -csession=incr -csessionid=2 

Top level modules:
	top

Analyzing design...
-- Loading module top
-- Loading interface wb_if
-- Loading interface i2c_if
-- Loading package STANDARD
-- Loading package TEXTIO
-- Loading package std_logic_1164
-- Loading entity iicmb_m_wb
-- Loading architecture str of iicmb_m_wb
-- Loading entity wishbone
-- Loading package NUMERIC_STD
-- Loading package iicmb_pkg
-- Loading entity regblock
-- Loading package iicmb_int_pkg
-- Loading entity iicmb_m
-- Loading architecture rtl of wishbone
-- Loading architecture rtl of regblock
-- Loading package body iicmb_pkg
-- Loading architecture str of iicmb_m
-- Loading entity mbyte
-- Loading entity mbit
-- Loading entity conditioner_mux
-- Loading package body iicmb_int_pkg
-- Loading architecture rtl of mbyte
-- Loading architecture rtl of mbit
-- Loading architecture str of conditioner_mux
-- Loading entity conditioner
-- Loading architecture str of conditioner
-- Loading entity filter
-- Loading entity bus_state
-- Loading architecture rtl of filter
-- Loading architecture rtl of bus_state
Optimizing 26 design-units (inlining 1/3 module instances, 9/11 architecture instances):
-- Optimizing package ncsu_pkg(fast)
-- Optimizing package i2c_typedefs(fast)
-- Optimizing package wb_pkg(fast)
-- Optimizing package i2c_pkg(fast)
-- Optimizing package i2c_if_sv_unit(fast)
-- Optimizing package i2cmb_env_pkg(fast)
-- Optimizing package top_sv_unit(fast)
-- Optimizing interface i2c_if(fast__2)
-- Inlining interface wb_if(fast__2)
-- Optimizing module top(fast)
-- Optimizing interface i2c_if(fast)
-- Optimizing interface wb_if(fast)
-- Inlining architecture rtl of mbyte
-- Inlining architecture rtl of mbit
-- Inlining architecture rtl of filter
-- Inlining architecture rtl of bus_state
-- Inlining architecture str of conditioner
-- Inlining architecture str of conditioner_mux
-- Optimizing architecture str of iicmb_m
-- Inlining architecture rtl of wishbone
-- Inlining architecture rtl of regblock
-- Optimizing architecture str of iicmb_m_wb
-- Optimizing package iicmb_pkg
-- Optimizing package body iicmb_pkg
-- Optimizing package iicmb_int_pkg
-- Optimizing package body iicmb_int_pkg
viscom:
VISCOM: Start time: 13:05:35 on Apr 03,2024

VISCOM: QuestaSim /mnt/apps/public/COE/mg_apps/questa2023.4/questasim/linux/../linux_x86_64/VisualizerRls/bin/viscom 2023.4 at 2023.10 Oct  9 2023
VISCOM: Writing design.bin
VISCOM: Done writing design.bin
VISCOM: End time: 13:05:37 on Apr 03,2024, Elapsed time: 0:00:02 (Process Size : 380MB, Peak Process Size : 382MB)


Optimized design name is qrun_opt
End time: 13:05:37 on Apr 03,2024, Elapsed time: 0:00:05
Errors: 0, Warnings: 0
# VISUALIZERROOT = '/mnt/apps/public/COE/mg_apps/questa2023.4/questasim/linux_x86_64/VisualizerRls'
# USER = 'asarath'
# Mentor Graphics software version 2023.4 (Build on Oct  9 2023)
# Copyright (C) 1999-2024 by Mentor Graphics All rights reserved.

# vsim -64 -onfinish stop -classdebug -uvmcontrol=all -msgmode both -permit_unmatched_virtual_intf -sv_seed 123456 -msglimit error -msglimitcount 20 -qwavedb=+signal+memory=1024+report+parameter+class+assertion+uvm_schematic+msg+classmemory=1024+statictaskfunc -lib qrun.out/work -visualizer=design.bin -do {set IterationLimit 140000; set NoQuitOnFinish 1; coverage attribute -name TESTNAME -value test_top; coverage save -onexit test_top.ucdb; do wave.do} -statslog qrun.out/stats_log qrun_opt -appendlog -l run.log -csession=incr -csessionid=3
# vsim -64 -onfinish stop -classdebug -uvmcontrol=all -msgmode both -permit_unmatched_virtual_intf -sv_seed 123456 -msglimit error -msglimitcount 20 -qwavedb=+livesim+signal+memory=1024+report+parameter+class+assertion+uvm_schematic+msg+classmemory=1024+statictaskfunc -lib qrun.out/work -visualizer=design.bin -statslog qrun.out/stats_log qrun_opt -appendlog -csession=incr -csessionid=3 "+no_qwavedb_threading" 
# Start time: 13:06:02 on Apr 03,2024
# Loading Mentor Graphics Visualizer shared object '/mnt/apps/public/COE/mg_apps/questa2023.4/questasim/bin/../linux_x86_64/VisualizerRls/bin/libqvisualizer.so'

# Initiating qwavedb class logging


# Done initiating qwavedb class logging
# //  Questa Sim-64
# //  Version 2023.4 linux_x86_64 Oct  9 2023
# //
# //  Copyright 1991-2023 Mentor Graphics Corporation
# //  All Rights Reserved.
# //
# //  QuestaSim and its associated documentation contain trade
# //  secrets and commercial or financial information that are the property of
# //  Mentor Graphics Corporation and are privileged, confidential,
# //  and exempt from disclosure under the Freedom of Information Act,
# //  5 U.S.C. Section 552. Furthermore, this information
# //  is prohibited from disclosure under the Trade Secrets Act,
# //  18 U.S.C. Section 1905.
# //
# Loading sv_std.std
# Loading work.wb_if(fast)
# Loading work.i2c_typedefs(fast)
# Loading work.i2c_if(fast)
# Loading work.ncsu_pkg(fast)
# Loading work.wb_pkg(fast)
# Loading work.i2c_pkg(fast)
# Loading work.i2cmb_env_pkg(fast)
# Loading work.top_sv_unit(fast)
# Loading work.top(fast)
# Loading work.i2c_if_sv_unit(fast)
# Loading work.i2c_if(fast__2)
# Loading std.standard
# Loading std.textio(body)
# Loading ieee.std_logic_1164(body)
# Loading ieee.numeric_std(body)
# Loading work.iicmb_pkg(body)
# Loading work.iicmb_m_wb(str)#1
# Loading work.iicmb_int_pkg(body)
# Loading work.iicmb_m(str)#1

# 13:06:08: Loading design data...
# 13:06:08: Loaded  design units
# 13:06:08: Loaded  design hierarchy
# Warning: The wave file cannot be loaded because either the simulation has not yet logged any data, or qwavedb logging has not been enabled.
# set IterationLimit 140000
# 140000
# set NoQuitOnFinish 1
# 1
# coverage attribute -name TESTNAME -value test_top

# coverage save -onexit test_top.ucdb

# do wave.do
# 13:06:15: Loading waveform header...
# 13:06:15: Loaded  waveform header
# 
# *****************************************************************
#    Using QuickLZ compression software.
# *****************************************************************
# 
# Static tasks and functions will be logged.
# Qwave threading will not be used.
# 	Arrays of 1 unpacked dimension inside classes will be logged if they have 1024 or fewer elements
# qwavedb_dumpvars: Initiating qwavedb class logging
# 
# 	Loading class filter file '/mnt/apps/public/COE/mg_apps/questa2023.4/questasim/bin/../linux_x86_64/VisualizerRls/bin/../config/uvmclassfilter.txt'
# 
# qwavedb_dumpvars: Done initiating qwavedb class logging
# Mentor Graphics software version 2023.4 (Build number 0)
# Copyright (C) 1999-2024 by Mentor Graphics All rights reserved.
# 	 Class Filter File used = /mnt/apps/public/COE/mg_apps/questa2023.4/questasim/bin/../linux_x86_64/VisualizerRls/bin/../config/uvmclassfilter.txt
# qwavedb_dumpvars: Initiating qwavedb waveform capturing
# 
# 	Arrays of 1 unpacked dimension will be logged if they have 1024 or fewer elements
# QWAVEDB:  logging of additional nested aggregates (UPA of UPS of UPA) is enabled.
# 
# qwavedb_dumpvars: Done initiating qwavedb waveform capturing
# 

# ----------------------------------------------------------------
# //  NCSU Package 
# //  Version 1.0a
# ----------------------------------------------------------------
# 
# 
# ******************************************************************
# ********************** BEGINNING TEST ****************************
# ******************************************************************
# 
# NCSU_INFO:Time                    0:ncsu_component::build():  of test.env.monitor_wb_agent.driver called
# NCSU_INFO:Time                    0:ncsu_component::build():  of test.env.monitor_wb_agent.monitor called
# NCSU_INFO:Time                    0:ncsu_component::build():  of test.env.monitor_i2c_agent.driver called
# NCSU_INFO:Time                    0:ncsu_component::build():  of test.env.monitor_i2c_agent.monitor called
# NCSU_INFO:Time                    0:ncsu_component::build():  of test.env.pred called
# NCSU_INFO:Time                    0:ncsu_component::build():  of test.env.scbd called
# 
# ********************************************************
# *********** Write 32 incrementing values ***************
# ********************************************************
# test.env.scbd nb_transport: expected transaction name: i2c_prediction transaction_count: 1 	I2C WRITE OPERATION		ADDRESS: 0x22		DATA: '{0, 1, 2, 3, 4, 5, 6, 7, 8, 9, 10, 11, 12, 13, 14, 15, 16, 17, 18, 19, 20, 21, 22, 23, 24, 25, 26, 27, 28, 29, 30, 31}	TIME:            298465500
# test.env.scbd nb_put: actual transaction name: monitored_trans transaction_count: 174 	I2C WRITE OPERATION		ADDRESS: 0x22		DATA: '{0, 1, 2, 3, 4, 5, 6, 7, 8, 9, 10, 11, 12, 13, 14, 15, 16, 17, 18, 19, 20, 21, 22, 23, 24, 25, 26, 27, 28, 29, 30, 31}	TIME:            299307500
# ******************** test.env.scbd compare: MATCH! ****************************
# 
# WRITE OPERATION COMPLETE
# 
# 
# ********************************************************
# *********** Read 32 incrementing values ****************
# ********************************************************
# test.env.scbd nb_transport: expected transaction name: i2c_prediction transaction_count: 1 	I2C READ OPERATION		ADDRESS: 0x22		DATA: '{100, 101, 102, 103, 104, 105, 106, 107, 108, 109, 110, 111, 112, 113, 114, 115, 116, 117, 118, 119, 120, 121, 122, 123, 124, 125, 126, 127, 128, 129, 130, 131}	TIME:            598198500
# test.env.scbd nb_put: actual transaction name: monitored_trans transaction_count: 283 	I2C READ OPERATION		ADDRESS: 0x22		DATA: '{100, 101, 102, 103, 104, 105, 106, 107, 108, 109, 110, 111, 112, 113, 114, 115, 116, 117, 118, 119, 120, 121, 122, 123, 124, 125, 126, 127, 128, 129, 130, 131}	TIME:            599040500
# ******************** test.env.scbd compare: MATCH! ****************************
# 
# READ OPERATION COMPLETE
# 
# 
# ********************************************************
# ****** Alternate write and read for 64 transfers *******
# ********************************************************
# test.env.scbd nb_transport: expected transaction name: i2c_prediction transaction_count: 1 	I2C WRITE OPERATION		ADDRESS: 0x22		DATA: '{64}	TIME:            618064500
# test.env.scbd nb_put: actual transaction name: monitored_trans transaction_count: 387 	I2C WRITE OPERATION		ADDRESS: 0x22		DATA: '{64}	TIME:            619066500
# ******************** test.env.scbd compare: MATCH! ****************************
# 
# test.env.scbd nb_transport: expected transaction name: i2c_prediction transaction_count: 1 	I2C READ OPERATION		ADDRESS: 0x22		DATA: '{63}	TIME:            637599500
# test.env.scbd nb_put: actual transaction name: monitored_trans transaction_count: 398 	I2C READ OPERATION		ADDRESS: 0x22		DATA: '{63}	TIME:            638601500
# ******************** test.env.scbd compare: MATCH! ****************************
# 
# test.env.scbd nb_transport: expected transaction name: i2c_prediction transaction_count: 1 	I2C WRITE OPERATION		ADDRESS: 0x22		DATA: '{65}	TIME:            657135500
# test.env.scbd nb_put: actual transaction name: monitored_trans transaction_count: 407 	I2C WRITE OPERATION		ADDRESS: 0x22		DATA: '{65}	TIME:            658137500
# ******************** test.env.scbd compare: MATCH! ****************************
# 
# test.env.scbd nb_transport: expected transaction name: i2c_prediction transaction_count: 1 	I2C READ OPERATION		ADDRESS: 0x22		DATA: '{62}	TIME:            676670500
# test.env.scbd nb_put: actual transaction name: monitored_trans transaction_count: 416 	I2C READ OPERATION		ADDRESS: 0x22		DATA: '{62}	TIME:            677672500
# ******************** test.env.scbd compare: MATCH! ****************************
# 
# test.env.scbd nb_transport: expected transaction name: i2c_prediction transaction_count: 1 	I2C WRITE OPERATION		ADDRESS: 0x22		DATA: '{66}	TIME:            696206500
# test.env.scbd nb_put: actual transaction name: monitored_trans transaction_count: 425 	I2C WRITE OPERATION		ADDRESS: 0x22		DATA: '{66}	TIME:            697208500
# ******************** test.env.scbd compare: MATCH! ****************************
# 
# test.env.scbd nb_transport: expected transaction name: i2c_prediction transaction_count: 1 	I2C READ OPERATION		ADDRESS: 0x22		DATA: '{61}	TIME:            715741500
# test.env.scbd nb_put: actual transaction name: monitored_trans transaction_count: 434 	I2C READ OPERATION		ADDRESS: 0x22		DATA: '{61}	TIME:            716743500
# ******************** test.env.scbd compare: MATCH! ****************************
# 
# test.env.scbd nb_transport: expected transaction name: i2c_prediction transaction_count: 1 	I2C WRITE OPERATION		ADDRESS: 0x22		DATA: '{67}	TIME:            735277500
# test.env.scbd nb_put: actual transaction name: monitored_trans transaction_count: 443 	I2C WRITE OPERATION		ADDRESS: 0x22		DATA: '{67}	TIME:            736279500
# ******************** test.env.scbd compare: MATCH! ****************************
# 
# test.env.scbd nb_transport: expected transaction name: i2c_prediction transaction_count: 1 	I2C READ OPERATION		ADDRESS: 0x22		DATA: '{60}	TIME:            754812500
# test.env.scbd nb_put: actual transaction name: monitored_trans transaction_count: 452 	I2C READ OPERATION		ADDRESS: 0x22		DATA: '{60}	TIME:            755814500
# ******************** test.env.scbd compare: MATCH! ****************************
# 
# test.env.scbd nb_transport: expected transaction name: i2c_prediction transaction_count: 1 	I2C WRITE OPERATION		ADDRESS: 0x22		DATA: '{68}	TIME:            774348500
# test.env.scbd nb_put: actual transaction name: monitored_trans transaction_count: 461 	I2C WRITE OPERATION		ADDRESS: 0x22		DATA: '{68}	TIME:            775350500
# ******************** test.env.scbd compare: MATCH! ****************************
# 
# test.env.scbd nb_transport: expected transaction name: i2c_prediction transaction_count: 1 	I2C READ OPERATION		ADDRESS: 0x22		DATA: '{59}	TIME:            793883500
# test.env.scbd nb_put: actual transaction name: monitored_trans transaction_count: 470 	I2C READ OPERATION		ADDRESS: 0x22		DATA: '{59}	TIME:            794885500
# ******************** test.env.scbd compare: MATCH! ****************************
# 
# test.env.scbd nb_transport: expected transaction name: i2c_prediction transaction_count: 1 	I2C WRITE OPERATION		ADDRESS: 0x22		DATA: '{69}	TIME:            813419500
# test.env.scbd nb_put: actual transaction name: monitored_trans transaction_count: 479 	I2C WRITE OPERATION		ADDRESS: 0x22		DATA: '{69}	TIME:            814421500
# ******************** test.env.scbd compare: MATCH! ****************************
# 
# test.env.scbd nb_transport: expected transaction name: i2c_prediction transaction_count: 1 	I2C READ OPERATION		ADDRESS: 0x22		DATA: '{58}	TIME:            832954500
# test.env.scbd nb_put: actual transaction name: monitored_trans transaction_count: 488 	I2C READ OPERATION		ADDRESS: 0x22		DATA: '{58}	TIME:            833956500
# ******************** test.env.scbd compare: MATCH! ****************************
# 
# test.env.scbd nb_transport: expected transaction name: i2c_prediction transaction_count: 1 	I2C WRITE OPERATION		ADDRESS: 0x22		DATA: '{70}	TIME:            852490500
# test.env.scbd nb_put: actual transaction name: monitored_trans transaction_count: 497 	I2C WRITE OPERATION		ADDRESS: 0x22		DATA: '{70}	TIME:            853492500
# ******************** test.env.scbd compare: MATCH! ****************************
# 
# test.env.scbd nb_transport: expected transaction name: i2c_prediction transaction_count: 1 	I2C READ OPERATION		ADDRESS: 0x22		DATA: '{57}	TIME:            872025500
# test.env.scbd nb_put: actual transaction name: monitored_trans transaction_count: 506 	I2C READ OPERATION		ADDRESS: 0x22		DATA: '{57}	TIME:            873027500
# ******************** test.env.scbd compare: MATCH! ****************************
# 
# test.env.scbd nb_transport: expected transaction name: i2c_prediction transaction_count: 1 	I2C WRITE OPERATION		ADDRESS: 0x22		DATA: '{71}	TIME:            891561500
# test.env.scbd nb_put: actual transaction name: monitored_trans transaction_count: 515 	I2C WRITE OPERATION		ADDRESS: 0x22		DATA: '{71}	TIME:            892563500
# ******************** test.env.scbd compare: MATCH! ****************************
# 
# test.env.scbd nb_transport: expected transaction name: i2c_prediction transaction_count: 1 	I2C READ OPERATION		ADDRESS: 0x22		DATA: '{56}	TIME:            911096500
# test.env.scbd nb_put: actual transaction name: monitored_trans transaction_count: 524 	I2C READ OPERATION		ADDRESS: 0x22		DATA: '{56}	TIME:            912098500
# ******************** test.env.scbd compare: MATCH! ****************************
# 
# test.env.scbd nb_transport: expected transaction name: i2c_prediction transaction_count: 1 	I2C WRITE OPERATION		ADDRESS: 0x22		DATA: '{72}	TIME:            930632500
# test.env.scbd nb_put: actual transaction name: monitored_trans transaction_count: 533 	I2C WRITE OPERATION		ADDRESS: 0x22		DATA: '{72}	TIME:            931634500
# ******************** test.env.scbd compare: MATCH! ****************************
# 
# test.env.scbd nb_transport: expected transaction name: i2c_prediction transaction_count: 1 	I2C READ OPERATION		ADDRESS: 0x22		DATA: '{55}	TIME:            950167500
# test.env.scbd nb_put: actual transaction name: monitored_trans transaction_count: 542 	I2C READ OPERATION		ADDRESS: 0x22		DATA: '{55}	TIME:            951169500
# ******************** test.env.scbd compare: MATCH! ****************************
# 
# test.env.scbd nb_transport: expected transaction name: i2c_prediction transaction_count: 1 	I2C WRITE OPERATION		ADDRESS: 0x22		DATA: '{73}	TIME:            969703500
# test.env.scbd nb_put: actual transaction name: monitored_trans transaction_count: 551 	I2C WRITE OPERATION		ADDRESS: 0x22		DATA: '{73}	TIME:            970705500
# ******************** test.env.scbd compare: MATCH! ****************************
# 
# test.env.scbd nb_transport: expected transaction name: i2c_prediction transaction_count: 1 	I2C READ OPERATION		ADDRESS: 0x22		DATA: '{54}	TIME:            989238500
# test.env.scbd nb_put: actual transaction name: monitored_trans transaction_count: 560 	I2C READ OPERATION		ADDRESS: 0x22		DATA: '{54}	TIME:            990240500
# ******************** test.env.scbd compare: MATCH! ****************************
# 
# test.env.scbd nb_transport: expected transaction name: i2c_prediction transaction_count: 1 	I2C WRITE OPERATION		ADDRESS: 0x22		DATA: '{74}	TIME:           1008774500
# test.env.scbd nb_put: actual transaction name: monitored_trans transaction_count: 569 	I2C WRITE OPERATION		ADDRESS: 0x22		DATA: '{74}	TIME:           1009776500
# ******************** test.env.scbd compare: MATCH! ****************************
# 
# test.env.scbd nb_transport: expected transaction name: i2c_prediction transaction_count: 1 	I2C READ OPERATION		ADDRESS: 0x22		DATA: '{53}	TIME:           1028309500
# test.env.scbd nb_put: actual transaction name: monitored_trans transaction_count: 578 	I2C READ OPERATION		ADDRESS: 0x22		DATA: '{53}	TIME:           1029311500
# ******************** test.env.scbd compare: MATCH! ****************************
# 
# test.env.scbd nb_transport: expected transaction name: i2c_prediction transaction_count: 1 	I2C WRITE OPERATION		ADDRESS: 0x22		DATA: '{75}	TIME:           1047845500
# test.env.scbd nb_put: actual transaction name: monitored_trans transaction_count: 587 	I2C WRITE OPERATION		ADDRESS: 0x22		DATA: '{75}	TIME:           1048847500
# ******************** test.env.scbd compare: MATCH! ****************************
# 
# test.env.scbd nb_transport: expected transaction name: i2c_prediction transaction_count: 1 	I2C READ OPERATION		ADDRESS: 0x22		DATA: '{52}	TIME:           1067380500
# test.env.scbd nb_put: actual transaction name: monitored_trans transaction_count: 596 	I2C READ OPERATION		ADDRESS: 0x22		DATA: '{52}	TIME:           1068382500
# ******************** test.env.scbd compare: MATCH! ****************************
# 
# test.env.scbd nb_transport: expected transaction name: i2c_prediction transaction_count: 1 	I2C WRITE OPERATION		ADDRESS: 0x22		DATA: '{76}	TIME:           1086916500
# test.env.scbd nb_put: actual transaction name: monitored_trans transaction_count: 605 	I2C WRITE OPERATION		ADDRESS: 0x22		DATA: '{76}	TIME:           1087918500
# ******************** test.env.scbd compare: MATCH! ****************************
# 
# test.env.scbd nb_transport: expected transaction name: i2c_prediction transaction_count: 1 	I2C READ OPERATION		ADDRESS: 0x22		DATA: '{51}	TIME:           1106451500
# test.env.scbd nb_put: actual transaction name: monitored_trans transaction_count: 614 	I2C READ OPERATION		ADDRESS: 0x22		DATA: '{51}	TIME:           1107453500
# ******************** test.env.scbd compare: MATCH! ****************************
# 
# test.env.scbd nb_transport: expected transaction name: i2c_prediction transaction_count: 1 	I2C WRITE OPERATION		ADDRESS: 0x22		DATA: '{77}	TIME:           1125987500
# test.env.scbd nb_put: actual transaction name: monitored_trans transaction_count: 623 	I2C WRITE OPERATION		ADDRESS: 0x22		DATA: '{77}	TIME:           1126989500
# ******************** test.env.scbd compare: MATCH! ****************************
# 
# test.env.scbd nb_transport: expected transaction name: i2c_prediction transaction_count: 1 	I2C READ OPERATION		ADDRESS: 0x22		DATA: '{50}	TIME:           1145522500
# test.env.scbd nb_put: actual transaction name: monitored_trans transaction_count: 632 	I2C READ OPERATION		ADDRESS: 0x22		DATA: '{50}	TIME:           1146524500
# ******************** test.env.scbd compare: MATCH! ****************************
# 
# test.env.scbd nb_transport: expected transaction name: i2c_prediction transaction_count: 1 	I2C WRITE OPERATION		ADDRESS: 0x22		DATA: '{78}	TIME:           1165058500
# test.env.scbd nb_put: actual transaction name: monitored_trans transaction_count: 641 	I2C WRITE OPERATION		ADDRESS: 0x22		DATA: '{78}	TIME:           1166060500
# ******************** test.env.scbd compare: MATCH! ****************************
# 
# test.env.scbd nb_transport: expected transaction name: i2c_prediction transaction_count: 1 	I2C READ OPERATION		ADDRESS: 0x22		DATA: '{49}	TIME:           1184593500
# test.env.scbd nb_put: actual transaction name: monitored_trans transaction_count: 650 	I2C READ OPERATION		ADDRESS: 0x22		DATA: '{49}	TIME:           1185595500
# ******************** test.env.scbd compare: MATCH! ****************************
# 
# test.env.scbd nb_transport: expected transaction name: i2c_prediction transaction_count: 1 	I2C WRITE OPERATION		ADDRESS: 0x22		DATA: '{79}	TIME:           1204129500
# test.env.scbd nb_put: actual transaction name: monitored_trans transaction_count: 659 	I2C WRITE OPERATION		ADDRESS: 0x22		DATA: '{79}	TIME:           1205131500
# ******************** test.env.scbd compare: MATCH! ****************************
# 
# test.env.scbd nb_transport: expected transaction name: i2c_prediction transaction_count: 1 	I2C READ OPERATION		ADDRESS: 0x22		DATA: '{48}	TIME:           1223664500
# test.env.scbd nb_put: actual transaction name: monitored_trans transaction_count: 668 	I2C READ OPERATION		ADDRESS: 0x22		DATA: '{48}	TIME:           1224666500
# ******************** test.env.scbd compare: MATCH! ****************************
# 
# test.env.scbd nb_transport: expected transaction name: i2c_prediction transaction_count: 1 	I2C WRITE OPERATION		ADDRESS: 0x22		DATA: '{80}	TIME:           1243200500
# test.env.scbd nb_put: actual transaction name: monitored_trans transaction_count: 677 	I2C WRITE OPERATION		ADDRESS: 0x22		DATA: '{80}	TIME:           1244202500
# ******************** test.env.scbd compare: MATCH! ****************************
# 
# test.env.scbd nb_transport: expected transaction name: i2c_prediction transaction_count: 1 	I2C READ OPERATION		ADDRESS: 0x22		DATA: '{47}	TIME:           1262735500
# test.env.scbd nb_put: actual transaction name: monitored_trans transaction_count: 686 	I2C READ OPERATION		ADDRESS: 0x22		DATA: '{47}	TIME:           1263737500
# ******************** test.env.scbd compare: MATCH! ****************************
# 
# test.env.scbd nb_transport: expected transaction name: i2c_prediction transaction_count: 1 	I2C WRITE OPERATION		ADDRESS: 0x22		DATA: '{81}	TIME:           1282271500
# test.env.scbd nb_put: actual transaction name: monitored_trans transaction_count: 695 	I2C WRITE OPERATION		ADDRESS: 0x22		DATA: '{81}	TIME:           1283273500
# ******************** test.env.scbd compare: MATCH! ****************************
# 
# test.env.scbd nb_transport: expected transaction name: i2c_prediction transaction_count: 1 	I2C READ OPERATION		ADDRESS: 0x22		DATA: '{46}	TIME:           1301806500
# test.env.scbd nb_put: actual transaction name: monitored_trans transaction_count: 704 	I2C READ OPERATION		ADDRESS: 0x22		DATA: '{46}	TIME:           1302808500
# ******************** test.env.scbd compare: MATCH! ****************************
# 
# test.env.scbd nb_transport: expected transaction name: i2c_prediction transaction_count: 1 	I2C WRITE OPERATION		ADDRESS: 0x22		DATA: '{82}	TIME:           1321342500
# test.env.scbd nb_put: actual transaction name: monitored_trans transaction_count: 713 	I2C WRITE OPERATION		ADDRESS: 0x22		DATA: '{82}	TIME:           1322344500
# ******************** test.env.scbd compare: MATCH! ****************************
# 
# test.env.scbd nb_transport: expected transaction name: i2c_prediction transaction_count: 1 	I2C READ OPERATION		ADDRESS: 0x22		DATA: '{45}	TIME:           1340877500
# test.env.scbd nb_put: actual transaction name: monitored_trans transaction_count: 722 	I2C READ OPERATION		ADDRESS: 0x22		DATA: '{45}	TIME:           1341879500
# ******************** test.env.scbd compare: MATCH! ****************************
# 
# test.env.scbd nb_transport: expected transaction name: i2c_prediction transaction_count: 1 	I2C WRITE OPERATION		ADDRESS: 0x22		DATA: '{83}	TIME:           1360413500
# test.env.scbd nb_put: actual transaction name: monitored_trans transaction_count: 731 	I2C WRITE OPERATION		ADDRESS: 0x22		DATA: '{83}	TIME:           1361415500
# ******************** test.env.scbd compare: MATCH! ****************************
# 
# test.env.scbd nb_transport: expected transaction name: i2c_prediction transaction_count: 1 	I2C READ OPERATION		ADDRESS: 0x22		DATA: '{44}	TIME:           1379948500
# test.env.scbd nb_put: actual transaction name: monitored_trans transaction_count: 740 	I2C READ OPERATION		ADDRESS: 0x22		DATA: '{44}	TIME:           1380950500
# ******************** test.env.scbd compare: MATCH! ****************************
# 
# test.env.scbd nb_transport: expected transaction name: i2c_prediction transaction_count: 1 	I2C WRITE OPERATION		ADDRESS: 0x22		DATA: '{84}	TIME:           1399484500
# test.env.scbd nb_put: actual transaction name: monitored_trans transaction_count: 749 	I2C WRITE OPERATION		ADDRESS: 0x22		DATA: '{84}	TIME:           1400486500
# ******************** test.env.scbd compare: MATCH! ****************************
# 
